1. Summary
Meeting title	Python Training [week 6] - [week 13]
Attended participants	19
Start time	11/9/22, 4:51:25 PM
End time	11/9/22, 6:24:37 PM
Meeting duration	1h 33m 12s
Average attendance time	1h 19m 55s

2. Participants
Name	First join	Last leave	In-meeting duration	Email	Participant ID (UPN)	Role
Andre Arroyo Hinojosa	11/9/22, 4:51:29 PM	11/9/22, 6:24:37 PM	1h 33m 7s	Andre.Arroyo@jala.university	Andre.Arroyo@jala.university	Presenter
Miguel Pozo Morales	11/9/22, 4:51:44 PM	11/9/22, 6:18:56 PM	1h 27m 12s	Miguel.Pozo@jala.university	Miguel.Pozo@jala.university	Presenter
Diego Alarcon Inturias	11/9/22, 4:51:49 PM	11/9/22, 6:19:06 PM	1h 27m 16s	Diego.Alarcon@jala.university	Diego.Alarcon@jala.university	Presenter
Kevin Butvilofsky	11/9/22, 4:54:50 PM	11/9/22, 6:18:54 PM	1h 24m 4s	Kevin.Butvilofsky@jala.university	Kevin.Butvilofsky@jala.university	Presenter
Renan Boaventura	11/9/22, 4:56:40 PM	11/9/22, 6:18:58 PM	1h 22m 18s	Renan.Boaventura@jala.university	Renan.Boaventura@jala.university	Presenter
Rodrigo Morales Rivas	11/9/22, 4:57:12 PM	11/9/22, 6:18:56 PM	1h 21m 43s	Rodrigo.Morales@jala.university	Rodrigo.Morales@jala.university	Presenter
Jose Mendoza Antonio	11/9/22, 4:58:22 PM	11/9/22, 6:18:58 PM	1h 20m 35s	Jose.Mendoza@jala.university	Jose.Mendoza@jala.university	Presenter
Brayan Vasquez Rojas	11/9/22, 5:00:16 PM	11/9/22, 6:19:03 PM	1h 18m 47s	Brayan.Vasquez@jala.university	Brayan.Vasquez@jala.university	Presenter
Maria Marquina Guevara	11/9/22, 5:00:25 PM	11/9/22, 6:18:53 PM	1h 18m 27s	Maria.Marquina@jala.university	Maria.Marquina@jala.university	Organizer
Israel Zurita Sanchez	11/9/22, 5:00:25 PM	11/9/22, 6:19:11 PM	1h 18m 45s	Israel.Zurita@jala.university	Israel.Zurita@jala.university	Presenter
Diego Quisbert Gutierrez	11/9/22, 5:00:30 PM	11/9/22, 6:18:54 PM	1h 18m 23s	Diego.Quisbert@jala.university	Diego.Quisbert@jala.university	Presenter
Alex Perez Castillo	11/9/22, 5:00:34 PM	11/9/22, 6:19:01 PM	1h 18m 27s	Alex.Perez@jala.university	Alex.Perez@jala.university	Presenter
Sebastian Arbelaez Meneses	11/9/22, 5:00:54 PM	11/9/22, 6:18:53 PM	1h 17m 58s	Sebastian.Arbelaez@jala.university	Sebastian.Arbelaez@jala.university	Presenter
Miguel Gemio Quispe	11/9/22, 5:01:11 PM	11/9/22, 6:19:02 PM	1h 17m 50s	Miguel.Gemio@jala.university	Miguel.Gemio@jala.university	Presenter
Alejandra Maldonado	11/9/22, 5:02:08 PM	11/9/22, 6:19:07 PM	1h 16m 59s	Alejandra.Maldonado@jala.university	Alejandra.Maldonado@jala.university	Presenter
Dayana Hernandez Aquize	11/9/22, 5:02:48 PM	11/9/22, 6:19:06 PM	1h 16m 18s	Dayana.Hernandez@jala.university	Dayana.Hernandez@jala.university	Presenter
Miguel Paricahua Lopez	11/9/22, 5:04:16 PM	11/9/22, 6:19:01 PM	1h 14m 44s	Miguel.Paricahua@jala.university	Miguel.Paricahua@jala.university	Presenter
Ivan Gonzalez de la Torre	11/9/22, 5:05:10 PM	11/9/22, 6:18:57 PM	1h 13m 46s	Ivan.Gonzalez@jala.university	Ivan.Gonzalez@jala.university	Presenter
Nelson Delgado Colque	11/9/22, 5:07:06 PM	11/9/22, 6:18:54 PM	1h 11m 47s	Nelson.Delgado@jala.university	Nelson.Delgado@jala.university	Presenter

3. In-Meeting activities
Name	Join time	Leave time	Duration	Email	Role
Andre Arroyo Hinojosa	11/9/22, 4:51:29 PM	11/9/22, 6:24:37 PM	1h 33m 7s	Andre.Arroyo@jala.university	Presenter
Miguel Pozo Morales	11/9/22, 4:51:44 PM	11/9/22, 6:18:56 PM	1h 27m 12s	Miguel.Pozo@jala.university	Presenter
Diego Alarcon Inturias	11/9/22, 4:51:49 PM	11/9/22, 6:19:06 PM	1h 27m 16s	Diego.Alarcon@jala.university	Presenter
Kevin Butvilofsky	11/9/22, 4:54:50 PM	11/9/22, 6:18:54 PM	1h 24m 4s	Kevin.Butvilofsky@jala.university	Presenter
Renan Boaventura	11/9/22, 4:56:40 PM	11/9/22, 6:18:58 PM	1h 22m 18s	Renan.Boaventura@jala.university	Presenter
Rodrigo Morales Rivas	11/9/22, 4:57:12 PM	11/9/22, 6:18:56 PM	1h 21m 43s	Rodrigo.Morales@jala.university	Presenter
Jose Mendoza Antonio	11/9/22, 4:58:22 PM	11/9/22, 6:18:58 PM	1h 20m 35s	Jose.Mendoza@jala.university	Presenter
Brayan Vasquez Rojas	11/9/22, 5:00:16 PM	11/9/22, 6:19:03 PM	1h 18m 47s	Brayan.Vasquez@jala.university	Presenter
Maria Marquina Guevara	11/9/22, 5:00:25 PM	11/9/22, 6:18:53 PM	1h 18m 27s	Maria.Marquina@jala.university	Organizer
Israel Zurita Sanchez	11/9/22, 5:00:25 PM	11/9/22, 6:19:11 PM	1h 18m 45s	Israel.Zurita@jala.university	Presenter
Diego Quisbert Gutierrez	11/9/22, 5:00:30 PM	11/9/22, 6:18:54 PM	1h 18m 23s	Diego.Quisbert@jala.university	Presenter
Alex Perez Castillo	11/9/22, 5:00:34 PM	11/9/22, 6:19:01 PM	1h 18m 27s	Alex.Perez@jala.university	Presenter
Sebastian Arbelaez Meneses	11/9/22, 5:00:54 PM	11/9/22, 6:18:53 PM	1h 17m 58s	Sebastian.Arbelaez@jala.university	Presenter
Miguel Gemio Quispe	11/9/22, 5:01:11 PM	11/9/22, 6:19:02 PM	1h 17m 50s	Miguel.Gemio@jala.university	Presenter
Alejandra Maldonado	11/9/22, 5:02:08 PM	11/9/22, 6:19:07 PM	1h 16m 59s	Alejandra.Maldonado@jala.university	Presenter
Dayana Hernandez Aquize	11/9/22, 5:02:48 PM	11/9/22, 6:19:06 PM	1h 16m 18s	Dayana.Hernandez@jala.university	Presenter
Miguel Paricahua Lopez	11/9/22, 5:04:16 PM	11/9/22, 6:19:01 PM	1h 14m 44s	Miguel.Paricahua@jala.university	Presenter
Ivan Gonzalez de la Torre	11/9/22, 5:05:10 PM	11/9/22, 6:18:57 PM	1h 13m 46s	Ivan.Gonzalez@jala.university	Presenter
Nelson Delgado Colque	11/9/22, 5:07:06 PM	11/9/22, 6:18:54 PM	1h 11m 47s	Nelson.Delgado@jala.university	Presenter
